[gd_scene load_steps=3 format=2]

[ext_resource path="res://Scripts/Area.gd" type="Script" id=1]

[sub_resource type="RectangleShape2D" id=1]
extents = Vector2( 16.1611, 30.33 )

[node name="Area" type="Area2D"]
script = ExtResource( 1 )

[node name="CollisionShape2D" type="CollisionShape2D" parent="."]
shape = SubResource( 1 )
[connection signal="body_entered" from="." to="." method="_on_Area_body_entered"]
